<svg 
 xmlns="http://www.w3.org/2000/svg"
 xmlns:xlink="http://www.w3.org/1999/xlink"
 width="10px" height="16px">
<path fill-rule="evenodd"  fill="rgb(166, 166, 166)"
 d="M0.002,13.893 L2.087,15.998 L10.011,8.000 L2.087,0.002 L0.002,2.107 L5.840,8.000 L0.002,13.893 Z"/>
</svg>