<svg 
 xmlns="http://www.w3.org/2000/svg"
 xmlns:xlink="http://www.w3.org/1999/xlink"
 width="105px" height="15px">
<text font-family="PFDinDisplayPro" fill="rgb(255, 255, 255)" font-size="20px" x="0px" y="15.062px">BROOM</text>
</svg>