<svg 
 xmlns="http://www.w3.org/2000/svg"
 xmlns:xlink="http://www.w3.org/1999/xlink"
 width="6px" height="5px">
<path fill-rule="evenodd"  fill="#CCCCCC"
 d="M3.000,4.394 L0.012,1.405 L1.405,0.012 L3.000,1.606 L4.595,0.012 L5.989,1.405 L3.000,4.394 Z"/>
</svg>