<svg 
 xmlns="http://www.w3.org/2000/svg"
 xmlns:xlink="http://www.w3.org/1999/xlink"
 width="8px" height="7px">
<path fill-rule="evenodd"  fill="rgb(36, 102, 226)"
 d="M3.000,6.393 L0.012,3.406 L1.405,2.011 L3.000,3.607 L6.595,0.012 L7.989,1.406 L3.000,6.393 Z"/>
</svg>