<svg 
 xmlns="http://www.w3.org/2000/svg"
 xmlns:xlink="http://www.w3.org/1999/xlink"
 width="8px" height="8px">
<path fill-rule="evenodd"  fill="rgb(226, 36, 36)"
 d="M7.989,6.594 L6.595,7.988 L4.000,5.394 L1.405,7.988 L0.012,6.594 L2.606,4.000 L0.012,1.406 L1.405,0.012 L4.000,2.606 L6.595,0.012 L7.989,1.406 L5.394,4.000 L7.989,6.594 Z"/>
</svg>