<svg 
 xmlns="http://www.w3.org/2000/svg"
 xmlns:xlink="http://www.w3.org/1999/xlink"
 width="30px" height="30px">
<path fill-rule="evenodd"  fill="rgb(36, 102, 226)"
 d="M2.000,-0.000 L28.000,-0.000 C29.105,-0.000 30.000,0.895 30.000,2.000 L30.000,28.000 C30.000,29.105 29.105,30.000 28.000,30.000 L2.000,30.000 C0.895,30.000 -0.000,29.105 -0.000,28.000 L-0.000,2.000 C-0.000,0.895 0.895,-0.000 2.000,-0.000 Z"/>
<path fill-rule="evenodd"  fill="rgb(255, 255, 255)"
 d="M15.771,11.027 L17.500,11.026 L17.500,9.001 L15.768,9.002 C15.768,9.002 12.832,8.779 12.832,11.913 C12.832,12.584 12.833,13.051 12.833,13.051 L11.500,13.051 L11.510,15.081 L12.833,15.075 L12.832,20.996 L14.830,20.996 L14.833,15.075 L16.833,15.075 L17.500,13.051 L14.833,13.051 L14.841,11.850 C14.841,11.850 14.819,11.027 15.771,11.027 Z"/>
</svg>