<svg 
 xmlns="http://www.w3.org/2000/svg"
 xmlns:xlink="http://www.w3.org/1999/xlink"
 width="15px" height="14px">
<path fill-rule="evenodd"  fill="rgb(255, 192, 1)"
 d="M7.516,0.000 L9.754,4.697 L15.000,5.250 L11.144,8.901 L12.188,14.000 L7.504,11.499 L2.812,14.000 L3.869,8.901 L-0.000,5.250 L5.259,4.697 L7.516,0.000 Z"/>
</svg>